%!PS-Adobe-3.0
%%BoundingBox: 54 54 558 738
%%Title: Graphics produced by IDL
%%For: baron@ella.local, /Users/baron/texin/BIBIN
%%Creator: IDL Version 6.1, Mac OS X (darwin ppc m32)
%%CreationDate: Mon Jul 18 05:31:49 2005
%%DocumentData: Clean7bit
%%Requirements: color
%%LanguageLevel: 1
%%PageOrder: Ascend
%%Pages: (atend)
%%DocumentNeededResources: (atend)
%%EndComments
%%BeginProlog
save
%+ prolog.ps -- Prolog for IDL generated PostScript files
%+ Copyright (c) 1988-2004 Research Systems, Inc. All Rights Reserved.
%v 5
/$IDL_DICT 40 dict def $IDL_DICT begin /bdef { bind def } bind def /C
{currentpoint newpath moveto} bdef /CP {currentpoint} bdef /D {currentpoint
stroke moveto} bdef /F {closepath fill} bdef /K { setgray } bdef /M {moveto}
bdef /N {rmoveto} bdef /P {lineto} bdef /R {rlineto} bdef /S {gsave show
grestore} bdef /X {currentpoint pop} bdef /Z {gsave currentpoint lineto 20
setlinewidth 1 setlinecap stroke grestore} bdef /L0 {[] 0 setdash} bdef /L1
{[40 100] 0 setdash} bdef /L2 {[200 200] 0 setdash} bdef /L3 {[200 100 50
100] 0 setdash} bdef /L4 {[300 100 50 100 50 100 50 100] 0 setdash} bdef /L5
{[400 200] 0 setdash} bdef /STDFONT { findfont exch scalefont setfont } bdef
/ISOFONT { findfont dup length dict begin { 1 index /FID ne {def} {pop pop}
ifelse } forall /Encoding ISOLatin1Encoding def currentdict end /idltmpfont
exch definefont exch scalefont setfont } bdef /ISOBULLET { gsave /Helvetica
findfont exch scalefont setfont (\267) show currentpoint grestore moveto}
bdef /MITERLIMIT { 2.5 setmiterlimit } bdef end
%%EndProlog
%%Page: 0 1
%%PageRequirements: color
%%PageResources: (atend)
%%PageOrientation: Landscape
%%PageBoundingBox: 54 54 558 738
%%BeginPageSetup
save
$IDL_DICT begin 54 738 translate 0.0283465 dup scale 270 rotate MITERLIMIT
%%IncludeResource: font Helvetica
423.333 /Helvetica STDFONT
%%EndPageSetup
10 setlinewidth L0 1.000 0.000 0.000 setrgbcolor 2220 1408 M 21244 0 R D
2220 1408 M 0 313 R D 2197 1125 M -35 -11 R -24 -35 R -11 -59 R 0 -35 R
11 -58 R 24 -35 R 35 -12 R 23 0 R 35 12 R 24 35 R 11 58 R 0 35 R -11 59 R
-24 35 R -35 11 R -23 0 R D 6469 1408 M 0 313 R D 6387 1067 M 0 12 R 12 23 R
11 12 R 24 11 R 47 0 R 23 -11 R 12 -12 R 11 -23 R 0 -24 R -11 -23 R
-24 -35 R -117 -117 R 164 0 R D 10718 1408 M 0 313 R D 10741 1125 M
-117 -163 R 176 0 R D 10741 1125 M 0 -245 R D 14967 1408 M 0 313 R D
15025 1090 M -12 24 R -35 11 R -23 0 R -35 -11 R -24 -35 R -11 -59 R 0 -58 R
11 -47 R 24 -23 R 35 -12 R 12 0 R 35 12 R 23 23 R 12 35 R 0 12 R -12 35 R
-23 23 R -35 12 R -12 0 R -35 -12 R -24 -23 R -11 -35 R D 19215 1408 M
0 313 R D 19180 1125 M -35 -11 R -11 -24 R 0 -23 R 11 -23 R 24 -12 R
46 -12 R 35 -11 R 24 -24 R 11 -23 R 0 -35 R -11 -24 R -12 -11 R -35 -12 R
-47 0 R -35 12 R -11 11 R -12 24 R 0 35 R 12 23 R 23 24 R 35 11 R 47 12 R
23 12 R 12 23 R 0 23 R -12 24 R -35 11 R -47 0 R D 23464 1408 M 0 313 R D
23289 1079 M 23 11 R 35 35 R 0 -245 R D 23558 1125 M -35 -11 R -24 -35 R
-12 -59 R 0 -35 R 12 -58 R 24 -35 R 35 -12 R 23 0 R 35 12 R 23 35 R 12 58 R
0 35 R -12 59 R -23 35 R -35 11 R -23 0 R D 3282 1408 M 0 157 R D
4345 1408 M 0 157 R D 5407 1408 M 0 157 R D 7531 1408 M 0 157 R D
8593 1408 M 0 157 R D 9656 1408 M 0 157 R D 11780 1408 M 0 157 R D
12842 1408 M 0 157 R D 13904 1408 M 0 157 R D 16029 1408 M 0 157 R D
17091 1408 M 0 157 R D 18153 1408 M 0 157 R D 20278 1408 M 0 157 R D
21340 1408 M 0 157 R D 22402 1408 M 0 157 R D 2220 17076 M 21244 0 R D
2220 17076 M 0 -313 R D 6469 17076 M 0 -313 R D 10718 17076 M 0 -313 R D
14967 17076 M 0 -313 R D 19215 17076 M 0 -313 R D 23464 17076 M 0 -313 R D
3282 17076 M 0 -157 R D 4345 17076 M 0 -157 R D 5407 17076 M 0 -157 R D
7531 17076 M 0 -157 R D 8593 17076 M 0 -157 R D 9656 17076 M 0 -157 R D
11780 17076 M 0 -157 R D 12842 17076 M 0 -157 R D 13904 17076 M 0 -157 R D
16029 17076 M 0 -157 R D 17091 17076 M 0 -157 R D 18153 17076 M 0 -157 R D
20278 17076 M 0 -157 R D 21340 17076 M 0 -157 R D 22402 17076 M 0 -157 R D
2220 1408 M 0 15668 R D 2220 1408 M 425 0 R D 1969 1653 M -35 -11 R
-24 -35 R -11 -59 R 0 -35 R 11 -58 R 24 -35 R 35 -12 R 23 0 R 35 12 R
24 35 R 11 58 R 0 35 R -11 59 R -24 35 R -35 11 R -23 0 R D 2220 4542 M
425 0 R D 1910 4588 M 0 12 R 12 23 R 12 12 R 23 11 R 47 0 R 23 -11 R
12 -12 R 12 -23 R 0 -24 R -12 -23 R -23 -35 R -117 -117 R 163 0 R D
2220 7675 M 425 0 R D 2016 7780 M -117 -164 R 175 0 R D 2016 7780 M 0 -246 R
D 2220 10809 M 425 0 R D 2051 10878 M -12 24 R -35 11 R -23 0 R -35 -11 R
-24 -35 R -12 -59 R 0 -58 R 12 -47 R 24 -23 R 35 -12 R 11 0 R 35 12 R
24 23 R 11 35 R 0 12 R -11 35 R -24 23 R -35 12 R -11 0 R -35 -12 R
-24 -23 R -12 -35 R D 2220 13942 M 425 0 R D 1957 14047 M -35 -12 R
-12 -23 R 0 -23 R 12 -24 R 24 -11 R 46 -12 R 35 -12 R 24 -23 R 11 -24 R
0 -35 R -11 -23 R -12 -12 R -35 -11 R -47 0 R -35 11 R -12 12 R -11 23 R
0 35 R 11 24 R 24 23 R 35 12 R 47 12 R 23 11 R 12 24 R 0 23 R -12 23 R
-35 12 R -47 0 R D 2220 17076 M 425 0 R D 1700 17028 M 24 12 R 35 35 R
0 -245 R D 1969 17075 M -35 -12 R -24 -35 R -11 -58 R 0 -35 R 11 -59 R
24 -35 R 35 -11 R 23 0 R 35 11 R 24 35 R 11 59 R 0 35 R -11 58 R -24 35 R
-35 12 R -23 0 R D 2220 2191 M 213 0 R D 2220 2975 M 213 0 R D 2220 3758 M
213 0 R D 2220 5325 M 213 0 R D 2220 6108 M 213 0 R D 2220 6892 M 213 0 R D
2220 8459 M 213 0 R D 2220 9242 M 213 0 R D 2220 10025 M 213 0 R D
2220 11592 M 213 0 R D 2220 12376 M 213 0 R D 2220 13159 M 213 0 R D
2220 14726 M 213 0 R D 2220 15509 M 213 0 R D 2220 16293 M 213 0 R D
23464 1408 M 0 15668 R D 23464 1408 M -425 0 R D 23464 4542 M -425 0 R D
23464 7675 M -425 0 R D 23464 10809 M -425 0 R D 23464 13942 M -425 0 R D
23464 17076 M -425 0 R D 23464 2191 M -212 0 R D 23464 2975 M -212 0 R D
23464 3758 M -212 0 R D 23464 5325 M -212 0 R D 23464 6108 M -212 0 R D
23464 6892 M -212 0 R D 23464 8459 M -212 0 R D 23464 9242 M -212 0 R D
23464 10025 M -212 0 R D 23464 11592 M -212 0 R D 23464 12376 M -212 0 R D
23464 13159 M -212 0 R D 23464 14726 M -212 0 R D 23464 15509 M -212 0 R D
23464 16293 M -212 0 R D 2220 1408 M 2125 1567 R 2124 1567 R 2124 1566 R
2125 1567 R 2124 1567 R 2125 1567 R 2124 1567 R 2124 1566 R 2125 1567 R D
%%PageTrailer
end
restore
showpage
%%PageResources: font Helvetica
%%Trailer
restore
%%Pages: 1
%%DocumentNeededResources: font Helvetica
%%EOF
